1_codigo,1_nombre,2_codigo,2_nombre,3_codigo,3_nombre,4_codigo,4_nombre,5_codigo,5_nombre,5_ume,5_cun,5_tmo
1,Equipamiento y Obras menores,1,Equipamiento,1,Tecnologías de la Información,1,Computadoras de Escritorio,1500,item 1,ume 1,cun 1,tmo 1
1,Equipamiento y Obras menores,1,Equipamiento,2,Equipos de Telecomunicaciones y Fotográfico,1,Equipos de audio y video,1501,item 2,ume 2,cun 2,tmo 2
1,Equipamiento y Obras menores,1,Equipamiento,3,"Maquinaria, equipo y herramientas",1,Equipos de oficina,1502,item 3,ume 3,cun 3,tmo 3
1,Equipamiento y Obras menores,1,Equipamiento,4,Equipo Educativo,1,Instrumentos Musicales,1503,item 4,ume 4,cun 4,tmo 4
1,Equipamiento y Obras menores,2,Obras,1,Instalación de equipos en edificios existentes,1,mayo,1504,item 5,ume 5,cun 5,tmo 5
1,Equipamiento y Obras menores,2,Obras,2,Mejoras en infraestructura educativa,1,junio,1505,item 6,ume 6,cun 6,tmo 6
